<svg width="48" height="48" viewBox="0 0 48 48" fill="none" xmlns="http://www.w3.org/2000/svg">
<circle cx="24" cy="24" r="24" fill="#FD475D" fill-opacity="0.16"/>
<path d="M19.5 19.67V18.7C19.5 16.45 21.31 14.24 23.56 14.03C26.24 13.77 28.5 15.88 28.5 18.51V19.89" stroke="#2E0C19" stroke-width="1.5" stroke-miterlimit="10" stroke-linecap="round" stroke-linejoin="round"/>
<path d="M21 34H27C31.02 34 31.74 32.39 31.95 30.43L32.7 24.43C32.97 21.99 32.27 20 28 20H20C15.73 20 15.03 21.99 15.3 24.43L16.05 30.43C16.26 32.39 16.98 34 21 34Z" stroke="#2E0C19" stroke-width="1.5" stroke-miterlimit="10" stroke-linecap="round" stroke-linejoin="round"/>
<path d="M27.4955 24H27.5045" stroke="#2E0C19" stroke-width="2" stroke-linecap="round" stroke-linejoin="round"/>
<path d="M20.4945 24H20.5035" stroke="#2E0C19" stroke-width="2" stroke-linecap="round" stroke-linejoin="round"/>
</svg>
